%YAML 1.1
%TAG !u! tag:unity3d.com,2011:
--- !u!29 &1
OcclusionCullingSettings:
  m_ObjectHideFlags: 0
  serializedVersion: 2
  m_OcclusionBakeSettings:
    smallestOccluder: 5
    smallestHole: 0.25
    backfaceThreshold: 100
  m_SceneGUID: 00000000000000000000000000000000
  m_OcclusionCullingData: {fileID: 0}
--- !u!104 &2
RenderSettings:
  m_ObjectHideFlags: 0
  serializedVersion: 9
  m_Fog: 0
  m_FogColor: {r: 0.5, g: 0.5, b: 0.5, a: 1}
  m_FogMode: 3
  m_FogDensity: 0.01
  m_LinearFogStart: 0
  m_LinearFogEnd: 300
  m_AmbientSkyColor: {r: 0.2, g: 0.2, b: 0.2, a: 1}
  m_AmbientEquatorColor: {r: 0.2, g: 0.2, b: 0.2, a: 1}
  m_AmbientGroundColor: {r: 0.2, g: 0.2, b: 0.2, a: 1}
  m_AmbientIntensity: 1
  m_AmbientMode: 3
  m_SubtractiveShadowColor: {r: 0.42, g: 0.478, b: 0.627, a: 1}
  m_SkyboxMaterial: {fileID: 0}
  m_HaloStrength: 0.5
  m_FlareStrength: 1
  m_FlareFadeSpeed: 3
  m_HaloTexture: {fileID: 0}
  m_SpotCookie: {fileID: 10001, guid: 0000000000000000e000000000000000, type: 0}
  m_DefaultReflectionMode: 0
  m_DefaultReflectionResolution: 128
  m_ReflectionBounces: 1
  m_ReflectionIntensity: 1
  m_CustomReflection: {fileID: 0}
  m_Sun: {fileID: 0}
  m_IndirectSpecularColor: {r: 0, g: 0, b: 0, a: 1}
  m_UseRadianceAmbientProbe: 0
--- !u!157 &4
LightmapSettings:
  m_ObjectHideFlags: 0
  serializedVersion: 11
  m_GIWorkflowMode: 1
  m_GISettings:
    serializedVersion: 2
    m_BounceScale: 1
    m_IndirectOutputScale: 1
    m_AlbedoBoost: 1
    m_EnvironmentLightingMode: 0
    m_EnableBakedLightmaps: 1
    m_EnableRealtimeLightmaps: 0
  m_LightmapEditorSettings:
    serializedVersion: 12
    m_Resolution: 1
    m_BakeResolution: 50
    m_AtlasSize: 1024
    m_AO: 1
    m_AOMaxDistance: 1
    m_CompAOExponent: 1
    m_CompAOExponentDirect: 0
    m_ExtractAmbientOcclusion: 0
    m_Padding: 2
    m_LightmapParameters: {fileID: 0}
    m_LightmapsBakeMode: 1
    m_TextureCompression: 0
    m_FinalGather: 0
    m_FinalGatherFiltering: 1
    m_FinalGatherRayCount: 256
    m_ReflectionCompression: 2
    m_MixedBakeMode: 1
    m_BakeBackend: 0
    m_PVRSampling: 1
    m_PVRDirectSampleCount: 32
    m_PVRSampleCount: 512
    m_PVRBounces: 2
    m_PVREnvironmentSampleCount: 512
    m_PVREnvironmentReferencePointCount: 2048
    m_PVRFilteringMode: 0
    m_PVRDenoiserTypeDirect: 0
    m_PVRDenoiserTypeIndirect: 0
    m_PVRDenoiserTypeAO: 0
    m_PVRFilterTypeDirect: 0
    m_PVRFilterTypeIndirect: 0
    m_PVRFilterTypeAO: 0
    m_PVREnvironmentMIS: 0
    m_PVRCulling: 1
    m_PVRFilteringGaussRadiusDirect: 1
    m_PVRFilteringGaussRadiusIndirect: 5
    m_PVRFilteringGaussRadiusAO: 2
    m_PVRFilteringAtrousPositionSigmaDirect: 0.5
    m_PVRFilteringAtrousPositionSigmaIndirect: 2
    m_PVRFilteringAtrousPositionSigmaAO: 1
    m_ShowResolutionOverlay: 1
    m_ExportTrainingData: 0
  m_LightingDataAsset: {fileID: 0}
  m_UseShadowmask: 0
--- !u!196 &5
NavMeshSettings:
  serializedVersion: 2
  m_ObjectHideFlags: 0
  m_BuildSettings:
    serializedVersion: 2
    agentTypeID: 0
    agentRadius: 0.5
    agentHeight: 2
    agentSlope: 45
    agentClimb: 0.4
    ledgeDropHeight: 0
    maxJumpAcrossDistance: 0
    minRegionArea: 2
    manualCellSize: 0
    cellSize: 0.16666666
    manualTileSize: 0
    tileSize: 256
    accuratePlacement: 0
    debug:
      m_Flags: 0
  m_NavMeshData: {fileID: 0}
--- !u!1 &39437999
GameObject:
  m_ObjectHideFlags: 0
  m_CorrespondingSourceObject: {fileID: 0}
  m_PrefabInstance: {fileID: 0}
  m_PrefabAsset: {fileID: 0}
  serializedVersion: 6
  m_Component:
  - component: {fileID: 39438004}
  - component: {fileID: 39438003}
  - component: {fileID: 39438002}
  - component: {fileID: 39438001}
  - component: {fileID: 39438000}
  m_Layer: 0
  m_Name: Main Camera
  m_TagString: MainCamera
  m_Icon: {fileID: 0}
  m_NavMeshLayer: 0
  m_StaticEditorFlags: 0
  m_IsActive: 1
--- !u!81 &39438000
AudioListener:
  m_ObjectHideFlags: 0
  m_CorrespondingSourceObject: {fileID: 0}
  m_PrefabInstance: {fileID: 0}
  m_PrefabAsset: {fileID: 0}
  m_GameObject: {fileID: 39437999}
  m_Enabled: 1
--- !u!124 &39438001
Behaviour:
  m_ObjectHideFlags: 0
  m_CorrespondingSourceObject: {fileID: 0}
  m_PrefabInstance: {fileID: 0}
  m_PrefabAsset: {fileID: 0}
  m_GameObject: {fileID: 39437999}
  m_Enabled: 1
--- !u!92 &39438002
Behaviour:
  m_ObjectHideFlags: 0
  m_CorrespondingSourceObject: {fileID: 0}
  m_PrefabInstance: {fileID: 0}
  m_PrefabAsset: {fileID: 0}
  m_GameObject: {fileID: 39437999}
  m_Enabled: 1
--- !u!20 &39438003
Camera:
  m_ObjectHideFlags: 0
  m_CorrespondingSourceObject: {fileID: 0}
  m_PrefabInstance: {fileID: 0}
  m_PrefabAsset: {fileID: 0}
  m_GameObject: {fileID: 39437999}
  m_Enabled: 1
  serializedVersion: 2
  m_ClearFlags: 1
  m_BackGroundColor: {r: 0.27205884, g: 0.27205884, b: 0.27205884, a: 0.019607844}
  m_projectionMatrixMode: 1
  m_GateFitMode: 2
  m_FOVAxisMode: 0
  m_SensorSize: {x: 36, y: 24}
  m_LensShift: {x: 0, y: 0}
  m_FocalLength: 50
  m_NormalizedViewPortRect:
    serializedVersion: 2
    x: 0
    y: 0
    width: 1
    height: 1
  near clip plane: 0.3
  far clip plane: 1000
  field of view: 60
  orthographic: 0
  orthographic size: 5
  m_Depth: -1
  m_CullingMask:
    serializedVersion: 2
    m_Bits: 4294967295
  m_RenderingPath: -1
  m_TargetTexture: {fileID: 0}
  m_TargetDisplay: 0
  m_TargetEye: 3
  m_HDR: 0
  m_AllowMSAA: 1
  m_AllowDynamicResolution: 0
  m_ForceIntoRT: 0
  m_OcclusionCulling: 1
  m_StereoConvergence: 10
  m_StereoSeparation: 0.022
--- !u!4 &39438004
Transform:
  m_ObjectHideFlags: 0
  m_CorrespondingSourceObject: {fileID: 0}
  m_PrefabInstance: {fileID: 0}
  m_PrefabAsset: {fileID: 0}
  m_GameObject: {fileID: 39437999}
  m_LocalRotation: {x: 0.37194288, y: -0.38965598, z: 0.17589726, w: 0.823946}
  m_LocalPosition: {x: 0.1144, y: -2.1593, z: 1.7629}
  m_LocalScale: {x: 1, y: 1, z: 1}
  m_Children: []
  m_Father: {fileID: 0}
  m_RootOrder: 1
  m_LocalEulerAnglesHint: {x: 0, y: 0, z: 0}
--- !u!4 &160470646 stripped
Transform:
  m_CorrespondingSourceObject: {fileID: 400000, guid: ed9fec1f563299440a87ef1950fd5cca,
    type: 3}
  m_PrefabInstance: {fileID: 2000699286}
  m_PrefabAsset: {fileID: 0}
--- !u!1 &228258666
GameObject:
  m_ObjectHideFlags: 0
  m_CorrespondingSourceObject: {fileID: 0}
  m_PrefabInstance: {fileID: 0}
  m_PrefabAsset: {fileID: 0}
  serializedVersion: 6
  m_Component:
  - component: {fileID: 228258668}
  - component: {fileID: 228258667}
  m_Layer: 0
  m_Name: Directional light
  m_TagString: Untagged
  m_Icon: {fileID: 0}
  m_NavMeshLayer: 0
  m_StaticEditorFlags: 0
  m_IsActive: 1
--- !u!108 &228258667
Light:
  m_ObjectHideFlags: 0
  m_CorrespondingSourceObject: {fileID: 0}
  m_PrefabInstance: {fileID: 0}
  m_PrefabAsset: {fileID: 0}
  m_GameObject: {fileID: 228258666}
  m_Enabled: 1
  serializedVersion: 9
  m_Type: 1
  m_Color: {r: 1, g: 1, b: 1, a: 1}
  m_Intensity: 0.4
  m_Range: 10
  m_SpotAngle: 30
  m_InnerSpotAngle: 21.802082
  m_CookieSize: 10
  m_Shadows:
    m_Type: 2
    m_Resolution: -1
    m_CustomResolution: -1
    m_Strength: 1
    m_Bias: 0.05
    m_NormalBias: 0.4
    m_NearPlane: 0.2
    m_CullingMatrixOverride:
      e00: 1
      e01: 0
      e02: 0
      e03: 0
      e10: 0
      e11: 1
      e12: 0
      e13: 0
      e20: 0
      e21: 0
      e22: 1
      e23: 0
      e30: 0
      e31: 0
      e32: 0
      e33: 1
    m_UseCullingMatrixOverride: 0
  m_Cookie: {fileID: 0}
  m_DrawHalo: 0
  m_Flare: {fileID: 0}
  m_RenderMode: 0
  m_CullingMask:
    serializedVersion: 2
    m_Bits: 4294967295
  m_RenderingLayerMask: 1
  m_Lightmapping: 1
  m_LightShadowCasterMode: 0
  m_AreaSize: {x: 1, y: 1}
  m_BounceIntensity: 1
  m_ColorTemperature: 6570
  m_UseColorTemperature: 0
  m_BoundingSphereOverride: {x: 0, y: 0, z: 0, w: 0}
  m_UseBoundingSphereOverride: 0
  m_ShadowRadius: 0
  m_ShadowAngle: 0
--- !u!4 &228258668
Transform:
  m_ObjectHideFlags: 0
  m_CorrespondingSourceObject: {fileID: 0}
  m_PrefabInstance: {fileID: 0}
  m_PrefabAsset: {fileID: 0}
  m_GameObject: {fileID: 228258666}
  m_LocalRotation: {x: 0.40821794, y: -0.23456973, z: 0.10938166, w: 0.8754261}
  m_LocalPosition: {x: -1.3737, y: -1.7373, z: 2.9727}
  m_LocalScale: {x: 1, y: 1, z: 1}
  m_Children: []
  m_Father: {fileID: 0}
  m_RootOrder: 4
  m_LocalEulerAnglesHint: {x: 0, y: 0, z: 0}
--- !u!1001 &293702787
PrefabInstance:
  m_ObjectHideFlags: 0
  serializedVersion: 2
  m_Modification:
    m_TransformParent: {fileID: 1459427703}
    m_Modifications:
    - target: {fileID: 400000, guid: 52cf2a42de425c04dbad2326efa3be14, type: 3}
      propertyPath: m_LocalPosition.x
      value: -.604989946
      objectReference: {fileID: 0}
    - target: {fileID: 400000, guid: 52cf2a42de425c04dbad2326efa3be14, type: 3}
      propertyPath: m_LocalPosition.y
      value: -2.59789991
      objectReference: {fileID: 0}
    - target: {fileID: 400000, guid: 52cf2a42de425c04dbad2326efa3be14, type: 3}
      propertyPath: m_LocalPosition.z
      value: .251000047
      objectReference: {fileID: 0}
    - target: {fileID: 400000, guid: 52cf2a42de425c04dbad2326efa3be14, type: 3}
      propertyPath: m_LocalRotation.x
      value: 0
      objectReference: {fileID: 0}
    - target: {fileID: 400000, guid: 52cf2a42de425c04dbad2326efa3be14, type: 3}
      propertyPath: m_LocalRotation.y
      value: 0
      objectReference: {fileID: 0}
    - target: {fileID: 400000, guid: 52cf2a42de425c04dbad2326efa3be14, type: 3}
      propertyPath: m_LocalRotation.z
      value: 0
      objectReference: {fileID: 0}
    - target: {fileID: 400000, guid: 52cf2a42de425c04dbad2326efa3be14, type: 3}
      propertyPath: m_LocalRotation.w
      value: 1
      objectReference: {fileID: 0}
    - target: {fileID: 400000, guid: 52cf2a42de425c04dbad2326efa3be14, type: 3}
      propertyPath: m_RootOrder
      value: 7
      objectReference: {fileID: 0}
    m_RemovedComponents: []
  m_SourcePrefab: {fileID: 100100000, guid: 52cf2a42de425c04dbad2326efa3be14, type: 3}
--- !u!1001 &670056561
PrefabInstance:
  m_ObjectHideFlags: 0
  serializedVersion: 2
  m_Modification:
    m_TransformParent: {fileID: 1459427703}
    m_Modifications:
    - target: {fileID: 400000, guid: bfb0c990155e78140881fa17aa905626, type: 3}
      propertyPath: m_LocalPosition.x
      value: -.150269985
      objectReference: {fileID: 0}
    - target: {fileID: 400000, guid: bfb0c990155e78140881fa17aa905626, type: 3}
      propertyPath: m_LocalPosition.y
      value: -2.61470008
      objectReference: {fileID: 0}
    - target: {fileID: 400000, guid: bfb0c990155e78140881fa17aa905626, type: 3}
      propertyPath: m_LocalPosition.z
      value: 1.07159996
      objectReference: {fileID: 0}
    - target: {fileID: 400000, guid: bfb0c990155e78140881fa17aa905626, type: 3}
      propertyPath: m_LocalRotation.x
      value: -.137524188
      objectReference: {fileID: 0}
    - target: {fileID: 400000, guid: bfb0c990155e78140881fa17aa905626, type: 3}
      propertyPath: m_LocalRotation.y
      value: -.13831532
      objectReference: {fileID: 0}
    - target: {fileID: 400000, guid: bfb0c990155e78140881fa17aa905626, type: 3}
      propertyPath: m_LocalRotation.z
      value: .691533923
      objectReference: {fileID: 0}
    - target: {fileID: 400000, guid: bfb0c990155e78140881fa17aa905626, type: 3}
      propertyPath: m_LocalRotation.w
      value: .695511997
      objectReference: {fileID: 0}
    - target: {fileID: 400000, guid: bfb0c990155e78140881fa17aa905626, type: 3}
      propertyPath: m_RootOrder
      value: 6
      objectReference: {fileID: 0}
    - target: {fileID: 400000, guid: bfb0c990155e78140881fa17aa905626, type: 3}
      propertyPath: m_LocalScale.y
      value: .48487252
      objectReference: {fileID: 0}
    - target: {fileID: 400000, guid: bfb0c990155e78140881fa17aa905626, type: 3}
      propertyPath: m_LocalScale.z
      value: .48487258
      objectReference: {fileID: 0}
    m_RemovedComponents: []
  m_SourcePrefab: {fileID: 100100000, guid: bfb0c990155e78140881fa17aa905626, type: 3}
--- !u!4 &683659948 stripped
Transform:
  m_CorrespondingSourceObject: {fileID: 400000, guid: d44172cf417e1fa478d4f94775a5c35e,
    type: 3}
  m_PrefabInstance: {fileID: 1733017002}
  m_PrefabAsset: {fileID: 0}
--- !u!4 &822106260 stripped
Transform:
  m_CorrespondingSourceObject: {fileID: 400000, guid: 52cf2a42de425c04dbad2326efa3be14,
    type: 3}
  m_PrefabInstance: {fileID: 293702787}
  m_PrefabAsset: {fileID: 0}
--- !u!1001 &886546848
PrefabInstance:
  m_ObjectHideFlags: 0
  serializedVersion: 2
  m_Modification:
    m_TransformParent: {fileID: 1459427703}
    m_Modifications:
    - target: {fileID: 400000, guid: a9583176f7fee624982878d84c582415, type: 3}
      propertyPath: m_LocalPosition.x
      value: -.113399982
      objectReference: {fileID: 0}
    - target: {fileID: 400000, guid: a9583176f7fee624982878d84c582415, type: 3}
      propertyPath: m_LocalPosition.y
      value: -2.60829997
      objectReference: {fileID: 0}
    - target: {fileID: 400000, guid: a9583176f7fee624982878d84c582415, type: 3}
      propertyPath: m_LocalPosition.z
      value: .364700079
      objectReference: {fileID: 0}
    - target: {fileID: 400000, guid: a9583176f7fee624982878d84c582415, type: 3}
      propertyPath: m_LocalRotation.x
      value: -.700325668
      objectReference: {fileID: 0}
    - target: {fileID: 400000, guid: a9583176f7fee624982878d84c582415, type: 3}
      propertyPath: m_LocalRotation.y
      value: .700325668
      objectReference: {fileID: 0}
    - target: {fileID: 400000, guid: a9583176f7fee624982878d84c582415, type: 3}
      propertyPath: m_LocalRotation.z
      value: .0976934582
      objectReference: {fileID: 0}
    - target: {fileID: 400000, guid: a9583176f7fee624982878d84c582415, type: 3}
      propertyPath: m_LocalRotation.w
      value: -.0976934582
      objectReference: {fileID: 0}
    - target: {fileID: 400000, guid: a9583176f7fee624982878d84c582415, type: 3}
      propertyPath: m_RootOrder
      value: 5
      objectReference: {fileID: 0}
    - target: {fileID: 400000, guid: a9583176f7fee624982878d84c582415, type: 3}
      propertyPath: m_LocalScale.z
      value: .288608044
      objectReference: {fileID: 0}
    m_RemovedComponents: []
  m_SourcePrefab: {fileID: 100100000, guid: a9583176f7fee624982878d84c582415, type: 3}
--- !u!1 &1091559832
GameObject:
  m_ObjectHideFlags: 0
  m_CorrespondingSourceObject: {fileID: 0}
  m_PrefabInstance: {fileID: 0}
  m_PrefabAsset: {fileID: 0}
  serializedVersion: 6
  m_Component:
  - component: {fileID: 1091559836}
  - component: {fileID: 1091559835}
  - component: {fileID: 1091559834}
  - component: {fileID: 1091559833}
  m_Layer: 0
  m_Name: Floor
  m_TagString: Untagged
  m_Icon: {fileID: 0}
  m_NavMeshLayer: 0
  m_StaticEditorFlags: 0
  m_IsActive: 1
--- !u!23 &1091559833
MeshRenderer:
  m_ObjectHideFlags: 0
  m_CorrespondingSourceObject: {fileID: 0}
  m_PrefabInstance: {fileID: 0}
  m_PrefabAsset: {fileID: 0}
  m_GameObject: {fileID: 1091559832}
  m_Enabled: 1
  m_CastShadows: 1
  m_ReceiveShadows: 1
  m_DynamicOccludee: 1
  m_MotionVectors: 1
  m_LightProbeUsage: 0
  m_ReflectionProbeUsage: 1
  m_RenderingLayerMask: 1
  m_RendererPriority: 0
  m_Materials:
  - {fileID: 10302, guid: 0000000000000000f000000000000000, type: 0}
  m_StaticBatchInfo:
    firstSubMesh: 0
    subMeshCount: 0
  m_StaticBatchRoot: {fileID: 0}
  m_ProbeAnchor: {fileID: 0}
  m_LightProbeVolumeOverride: {fileID: 0}
  m_ScaleInLightmap: 1
  m_PreserveUVs: 0
  m_IgnoreNormalsForChartDetection: 0
  m_ImportantGI: 0
  m_StitchLightmapSeams: 1
  m_SelectedEditorRenderState: 3
  m_MinimumChartSize: 4
  m_AutoUVMaxDistance: 0.5
  m_AutoUVMaxAngle: 89
  m_LightmapParameters: {fileID: 0}
  m_SortingLayerID: 0
  m_SortingLayer: 0
  m_SortingOrder: 0
--- !u!64 &1091559834
MeshCollider:
  m_ObjectHideFlags: 0
  m_CorrespondingSourceObject: {fileID: 0}
  m_PrefabInstance: {fileID: 0}
  m_PrefabAsset: {fileID: 0}
  m_GameObject: {fileID: 1091559832}
  m_Material: {fileID: 0}
  m_IsTrigger: 0
  m_Enabled: 1
  serializedVersion: 3
  m_Convex: 0
  m_CookingOptions: 14
  m_Mesh: {fileID: 10209, guid: 0000000000000000e000000000000000, type: 0}
--- !u!33 &1091559835
MeshFilter:
  m_ObjectHideFlags: 0
  m_CorrespondingSourceObject: {fileID: 0}
  m_PrefabInstance: {fileID: 0}
  m_PrefabAsset: {fileID: 0}
  m_GameObject: {fileID: 1091559832}
  m_Mesh: {fileID: 10209, guid: 0000000000000000e000000000000000, type: 0}
--- !u!4 &1091559836
Transform:
  m_ObjectHideFlags: 0
  m_CorrespondingSourceObject: {fileID: 0}
  m_PrefabInstance: {fileID: 0}
  m_PrefabAsset: {fileID: 0}
  m_GameObject: {fileID: 1091559832}
  m_LocalRotation: {x: 0, y: 0, z: 0, w: 1}
  m_LocalPosition: {x: -2.0234249, y: -3.7255635, z: 2.7709742}
  m_LocalScale: {x: 1, y: 1, z: 1}
  m_Children: []
  m_Father: {fileID: 0}
  m_RootOrder: 2
  m_LocalEulerAnglesHint: {x: 0, y: 0, z: 0}
--- !u!1001 &1428482740
PrefabInstance:
  m_ObjectHideFlags: 0
  serializedVersion: 2
  m_Modification:
    m_TransformParent: {fileID: 1459427703}
    m_Modifications:
    - target: {fileID: 400000, guid: ebf576c6a484cfe4583f646dc2283e95, type: 3}
      propertyPath: m_LocalPosition.x
      value: .214160025
      objectReference: {fileID: 0}
    - target: {fileID: 400000, guid: ebf576c6a484cfe4583f646dc2283e95, type: 3}
      propertyPath: m_LocalPosition.y
      value: -2.5144999
      objectReference: {fileID: 0}
    - target: {fileID: 400000, guid: ebf576c6a484cfe4583f646dc2283e95, type: 3}
      propertyPath: m_LocalPosition.z
      value: 1.51760006
      objectReference: {fileID: 0}
    - target: {fileID: 400000, guid: ebf576c6a484cfe4583f646dc2283e95, type: 3}
      propertyPath: m_LocalRotation.x
      value: 0
      objectReference: {fileID: 0}
    - target: {fileID: 400000, guid: ebf576c6a484cfe4583f646dc2283e95, type: 3}
      propertyPath: m_LocalRotation.y
      value: 0
      objectReference: {fileID: 0}
    - target: {fileID: 400000, guid: ebf576c6a484cfe4583f646dc2283e95, type: 3}
      propertyPath: m_LocalRotation.z
      value: 0
      objectReference: {fileID: 0}
    - target: {fileID: 400000, guid: ebf576c6a484cfe4583f646dc2283e95, type: 3}
      propertyPath: m_LocalRotation.w
      value: 1
      objectReference: {fileID: 0}
    - target: {fileID: 400000, guid: ebf576c6a484cfe4583f646dc2283e95, type: 3}
      propertyPath: m_RootOrder
      value: 2
      objectReference: {fileID: 0}
    m_RemovedComponents: []
  m_SourcePrefab: {fileID: 100100000, guid: ebf576c6a484cfe4583f646dc2283e95, type: 3}
--- !u!1 &1459427702
GameObject:
  m_ObjectHideFlags: 0
  m_CorrespondingSourceObject: {fileID: 0}
  m_PrefabInstance: {fileID: 0}
  m_PrefabAsset: {fileID: 0}
  serializedVersion: 6
  m_Component:
  - component: {fileID: 1459427703}
  m_Layer: 0
  m_Name: Items
  m_TagString: Untagged
  m_Icon: {fileID: 0}
  m_NavMeshLayer: 0
  m_StaticEditorFlags: 0
  m_IsActive: 1
--- !u!4 &1459427703
Transform:
  m_ObjectHideFlags: 0
  m_CorrespondingSourceObject: {fileID: 0}
  m_PrefabInstance: {fileID: 0}
  m_PrefabAsset: {fileID: 0}
  m_GameObject: {fileID: 1459427702}
  m_LocalRotation: {x: 0, y: 0, z: 0, w: 1}
  m_LocalPosition: {x: -0.73681, y: -1.0404, z: 1.6636}
  m_LocalScale: {x: 1, y: 1, z: 1}
  m_Children:
  - {fileID: 683659948}
  - {fileID: 160470646}
  - {fileID: 1807226751}
  - {fileID: 1767877446}
  - {fileID: 1481573960}
  - {fileID: 1466078420}
  - {fileID: 2073273090}
  - {fileID: 822106260}
  m_Father: {fileID: 0}
  m_RootOrder: 0
  m_LocalEulerAnglesHint: {x: 0, y: 0, z: 0}
--- !u!4 &1466078420 stripped
Transform:
  m_CorrespondingSourceObject: {fileID: 400000, guid: a9583176f7fee624982878d84c582415,
    type: 3}
  m_PrefabInstance: {fileID: 886546848}
  m_PrefabAsset: {fileID: 0}
--- !u!4 &1481573960 stripped
Transform:
  m_CorrespondingSourceObject: {fileID: 400000, guid: ae018aef64a8af149ac31816a82819f4,
    type: 3}
  m_PrefabInstance: {fileID: 1559730961}
  m_PrefabAsset: {fileID: 0}
--- !u!1001 &1559730961
PrefabInstance:
  m_ObjectHideFlags: 0
  serializedVersion: 2
  m_Modification:
    m_TransformParent: {fileID: 1459427703}
    m_Modifications:
    - target: {fileID: 400000, guid: ae018aef64a8af149ac31816a82819f4, type: 3}
      propertyPath: m_LocalPosition.x
      value: -.188909948
      objectReference: {fileID: 0}
    - target: {fileID: 400000, guid: ae018aef64a8af149ac31816a82819f4, type: 3}
      propertyPath: m_LocalPosition.y
      value: -2.30749989
      objectReference: {fileID: 0}
    - target: {fileID: 400000, guid: ae018aef64a8af149ac31816a82819f4, type: 3}
      propertyPath: m_LocalPosition.z
      value: 1.4065001
      objectReference: {fileID: 0}
    - target: {fileID: 400000, guid: ae018aef64a8af149ac31816a82819f4, type: 3}
      propertyPath: m_LocalRotation.x
      value: .703283787
      objectReference: {fileID: 0}
    - target: {fileID: 400000, guid: ae018aef64a8af149ac31816a82819f4, type: 3}
      propertyPath: m_LocalRotation.y
      value: 0
      objectReference: {fileID: 0}
    - target: {fileID: 400000, guid: ae018aef64a8af149ac31816a82819f4, type: 3}
      propertyPath: m_LocalRotation.z
      value: 0
      objectReference: {fileID: 0}
    - target: {fileID: 400000, guid: ae018aef64a8af149ac31816a82819f4, type: 3}
      propertyPath: m_LocalRotation.w
      value: .710909247
      objectReference: {fileID: 0}
    - target: {fileID: 400000, guid: ae018aef64a8af149ac31816a82819f4, type: 3}
      propertyPath: m_RootOrder
      value: 4
      objectReference: {fileID: 0}
    - target: {fileID: 400000, guid: ae018aef64a8af149ac31816a82819f4, type: 3}
      propertyPath: m_LocalScale.y
      value: .547639549
      objectReference: {fileID: 0}
    m_RemovedComponents: []
  m_SourcePrefab: {fileID: 100100000, guid: ae018aef64a8af149ac31816a82819f4, type: 3}
--- !u!1001 &1714065137
PrefabInstance:
  m_ObjectHideFlags: 0
  serializedVersion: 2
  m_Modification:
    m_TransformParent: {fileID: 1459427703}
    m_Modifications:
    - target: {fileID: 400000, guid: b47b4cddd05440744a98c2e507be3b46, type: 3}
      propertyPath: m_LocalPosition.x
      value: .501830041
      objectReference: {fileID: 0}
    - target: {fileID: 400000, guid: b47b4cddd05440744a98c2e507be3b46, type: 3}
      propertyPath: m_LocalPosition.y
      value: -2.62820005
      objectReference: {fileID: 0}
    - target: {fileID: 400000, guid: b47b4cddd05440744a98c2e507be3b46, type: 3}
      propertyPath: m_LocalPosition.z
      value: .925199986
      objectReference: {fileID: 0}
    - target: {fileID: 400000, guid: b47b4cddd05440744a98c2e507be3b46, type: 3}
      propertyPath: m_LocalRotation.x
      value: 0
      objectReference: {fileID: 0}
    - target: {fileID: 400000, guid: b47b4cddd05440744a98c2e507be3b46, type: 3}
      propertyPath: m_LocalRotation.y
      value: .817136943
      objectReference: {fileID: 0}
    - target: {fileID: 400000, guid: b47b4cddd05440744a98c2e507be3b46, type: 3}
      propertyPath: m_LocalRotation.z
      value: 0
      objectReference: {fileID: 0}
    - target: {fileID: 400000, guid: b47b4cddd05440744a98c2e507be3b46, type: 3}
      propertyPath: m_LocalRotation.w
      value: .576443672
      objectReference: {fileID: 0}
    - target: {fileID: 400000, guid: b47b4cddd05440744a98c2e507be3b46, type: 3}
      propertyPath: m_RootOrder
      value: 3
      objectReference: {fileID: 0}
    m_RemovedComponents: []
  m_SourcePrefab: {fileID: 100100000, guid: b47b4cddd05440744a98c2e507be3b46, type: 3}
--- !u!1001 &1733017002
PrefabInstance:
  m_ObjectHideFlags: 0
  serializedVersion: 2
  m_Modification:
    m_TransformParent: {fileID: 1459427703}
    m_Modifications:
    - target: {fileID: 400000, guid: d44172cf417e1fa478d4f94775a5c35e, type: 3}
      propertyPath: m_LocalPosition.x
      value: .278550029
      objectReference: {fileID: 0}
    - target: {fileID: 400000, guid: d44172cf417e1fa478d4f94775a5c35e, type: 3}
      propertyPath: m_LocalPosition.y
      value: -2.62290001
      objectReference: {fileID: 0}
    - target: {fileID: 400000, guid: d44172cf417e1fa478d4f94775a5c35e, type: 3}
      propertyPath: m_LocalPosition.z
      value: .79820013
      objectReference: {fileID: 0}
    - target: {fileID: 400000, guid: d44172cf417e1fa478d4f94775a5c35e, type: 3}
      propertyPath: m_LocalRotation.x
      value: 0
      objectReference: {fileID: 0}
    - target: {fileID: 400000, guid: d44172cf417e1fa478d4f94775a5c35e, type: 3}
      propertyPath: m_LocalRotation.y
      value: 0
      objectReference: {fileID: 0}
    - target: {fileID: 400000, guid: d44172cf417e1fa478d4f94775a5c35e, type: 3}
      propertyPath: m_LocalRotation.z
      value: 0
      objectReference: {fileID: 0}
    - target: {fileID: 400000, guid: d44172cf417e1fa478d4f94775a5c35e, type: 3}
      propertyPath: m_LocalRotation.w
      value: 1
      objectReference: {fileID: 0}
    - target: {fileID: 400000, guid: d44172cf417e1fa478d4f94775a5c35e, type: 3}
      propertyPath: m_RootOrder
      value: 0
      objectReference: {fileID: 0}
    m_RemovedComponents: []
  m_SourcePrefab: {fileID: 100100000, guid: d44172cf417e1fa478d4f94775a5c35e, type: 3}
--- !u!1 &1760027463
GameObject:
  m_ObjectHideFlags: 0
  m_CorrespondingSourceObject: {fileID: 0}
  m_PrefabInstance: {fileID: 0}
  m_PrefabAsset: {fileID: 0}
  serializedVersion: 6
  m_Component:
  - component: {fileID: 1760027465}
  - component: {fileID: 1760027464}
  m_Layer: 0
  m_Name: Point light
  m_TagString: Untagged
  m_Icon: {fileID: 0}
  m_NavMeshLayer: 0
  m_StaticEditorFlags: 0
  m_IsActive: 1
--- !u!108 &1760027464
Light:
  m_ObjectHideFlags: 0
  m_CorrespondingSourceObject: {fileID: 0}
  m_PrefabInstance: {fileID: 0}
  m_PrefabAsset: {fileID: 0}
  m_GameObject: {fileID: 1760027463}
  m_Enabled: 1
  serializedVersion: 9
  m_Type: 2
  m_Color: {r: 1, g: 1, b: 1, a: 1}
  m_Intensity: 0.76
  m_Range: 10
  m_SpotAngle: 30
  m_InnerSpotAngle: 21.802082
  m_CookieSize: 10
  m_Shadows:
    m_Type: 0
    m_Resolution: -1
    m_CustomResolution: -1
    m_Strength: 1
    m_Bias: 0.05
    m_NormalBias: 0.4
    m_NearPlane: 0.2
    m_CullingMatrixOverride:
      e00: 1
      e01: 0
      e02: 0
      e03: 0
      e10: 0
      e11: 1
      e12: 0
      e13: 0
      e20: 0
      e21: 0
      e22: 1
      e23: 0
      e30: 0
      e31: 0
      e32: 0
      e33: 1
    m_UseCullingMatrixOverride: 0
  m_Cookie: {fileID: 0}
  m_DrawHalo: 0
  m_Flare: {fileID: 0}
  m_RenderMode: 0
  m_CullingMask:
    serializedVersion: 2
    m_Bits: 4294967295
  m_RenderingLayerMask: 1
  m_Lightmapping: 1
  m_LightShadowCasterMode: 0
  m_AreaSize: {x: 1, y: 1}
  m_BounceIntensity: 1
  m_ColorTemperature: 6570
  m_UseColorTemperature: 0
  m_BoundingSphereOverride: {x: 0, y: 0, z: 0, w: 0}
  m_UseBoundingSphereOverride: 0
  m_ShadowRadius: 0
  m_ShadowAngle: 0
--- !u!4 &1760027465
Transform:
  m_ObjectHideFlags: 0
  m_CorrespondingSourceObject: {fileID: 0}
  m_PrefabInstance: {fileID: 0}
  m_PrefabAsset: {fileID: 0}
  m_GameObject: {fileID: 1760027463}
  m_LocalRotation: {x: 0, y: 0, z: 0, w: 1}
  m_LocalPosition: {x: -0.73681, y: -1.0404, z: 1.6636}
  m_LocalScale: {x: 1, y: 1, z: 1}
  m_Children: []
  m_Father: {fileID: 0}
  m_RootOrder: 3
  m_LocalEulerAnglesHint: {x: 0, y: 0, z: 0}
--- !u!4 &1767877446 stripped
Transform:
  m_CorrespondingSourceObject: {fileID: 400000, guid: b47b4cddd05440744a98c2e507be3b46,
    type: 3}
  m_PrefabInstance: {fileID: 1714065137}
  m_PrefabAsset: {fileID: 0}
--- !u!4 &1807226751 stripped
Transform:
  m_CorrespondingSourceObject: {fileID: 400000, guid: ebf576c6a484cfe4583f646dc2283e95,
    type: 3}
  m_PrefabInstance: {fileID: 1428482740}
  m_PrefabAsset: {fileID: 0}
--- !u!1001 &2000699286
PrefabInstance:
  m_ObjectHideFlags: 0
  serializedVersion: 2
  m_Modification:
    m_TransformParent: {fileID: 1459427703}
    m_Modifications:
    - target: {fileID: 400000, guid: ed9fec1f563299440a87ef1950fd5cca, type: 3}
      propertyPath: m_LocalPosition.x
      value: -.143259943
      objectReference: {fileID: 0}
    - target: {fileID: 400000, guid: ed9fec1f563299440a87ef1950fd5cca, type: 3}
      propertyPath: m_LocalPosition.y
      value: -2.63619995
      objectReference: {fileID: 0}
    - target: {fileID: 400000, guid: ed9fec1f563299440a87ef1950fd5cca, type: 3}
      propertyPath: m_LocalPosition.z
      value: .183200002
      objectReference: {fileID: 0}
    - target: {fileID: 400000, guid: ed9fec1f563299440a87ef1950fd5cca, type: 3}
      propertyPath: m_LocalRotation.x
      value: -.253926188
      objectReference: {fileID: 0}
    - target: {fileID: 400000, guid: ed9fec1f563299440a87ef1950fd5cca, type: 3}
      propertyPath: m_LocalRotation.y
      value: .659940541
      objectReference: {fileID: 0}
    - target: {fileID: 400000, guid: ed9fec1f563299440a87ef1950fd5cca, type: 3}
      propertyPath: m_LocalRotation.z
      value: .659940541
      objectReference: {fileID: 0}
    - target: {fileID: 400000, guid: ed9fec1f563299440a87ef1950fd5cca, type: 3}
      propertyPath: m_LocalRotation.w
      value: .253926188
      objectReference: {fileID: 0}
    - target: {fileID: 400000, guid: ed9fec1f563299440a87ef1950fd5cca, type: 3}
      propertyPath: m_RootOrder
      value: 1
      objectReference: {fileID: 0}
    - target: {fileID: 400000, guid: ed9fec1f563299440a87ef1950fd5cca, type: 3}
      propertyPath: m_LocalScale.x
      value: .0880737454
      objectReference: {fileID: 0}
    - target: {fileID: 400000, guid: ed9fec1f563299440a87ef1950fd5cca, type: 3}
      propertyPath: m_LocalScale.y
      value: .0880737454
      objectReference: {fileID: 0}
    m_RemovedComponents: []
  m_SourcePrefab: {fileID: 100100000, guid: ed9fec1f563299440a87ef1950fd5cca, type: 3}
--- !u!4 &2073273090 stripped
Transform:
  m_CorrespondingSourceObject: {fileID: 400000, guid: bfb0c990155e78140881fa17aa905626,
    type: 3}
  m_PrefabInstance: {fileID: 670056561}
  m_PrefabAsset: {fileID: 0}
